digraph code {
	graph [bgcolor=white fontname="Courier" splines="ortho"];
	node [fillcolor=gray style=filled shape=box];
	edge [arrowhead="normal"];
	"0x08048800" -> "0x08048e74" [label="sym._fini" color="red" URL="sym._fini/0x08048e74"];
	"0x08048e74" [label="sym._fini" URL="sym._fini/0x08048e74"];
	"0x08048800" -> "0x08048628" [label="sym._init" color="red" URL="sym._init/0x08048628"];
	"0x08048628" [label="sym._init" URL="sym._init/0x08048628"];
	"0x08048800" -> "0x08048c7c" [label="sym.main" color="red" URL="sym.main/0x08048c7c"];
	"0x08048c7c" [label="sym.main" URL="sym.main/0x08048c7c"];
	"0x08048830" -> "0x0804a038" [label="obj.p.3" color="red" URL="obj.p.3/0x0804a038"];
	"0x0804a038" [label="obj.p.3" URL="obj.p.3/0x0804a038"];
	"0x08048830" -> "0x0804a038" [label="obj.p.3" color="red" URL="obj.p.3/0x0804a038"];
	"0x0804a038" [label="obj.p.3" URL="obj.p.3/0x0804a038"];
	"0x08048830" -> "0x0804a038" [label="obj.p.3" color="red" URL="obj.p.3/0x0804a038"];
	"0x0804a038" [label="obj.p.3" URL="obj.p.3/0x0804a038"];
	"0x08048830" -> "0x080486f8" [label="sym.imp.__deregister_frame_info" color="red" URL="sym.imp.__deregister_frame_info/0x080486f8"];
	"0x080486f8" [label="sym.imp.__deregister_frame_info" URL="sym.imp.__deregister_frame_info/0x080486f8"];
	"0x08048830" -> "0x0804a03c" [label="obj.completed.4" color="red" URL="obj.completed.4/0x0804a03c"];
	"0x0804a03c" [label="obj.completed.4" URL="obj.completed.4/0x0804a03c"];
	"0x08048830" -> "0x0804a040" [label="obj.__FRAME_END" color="red" URL="obj.__FRAME_END/0x0804a040"];
	"0x0804a040" [label="obj.__FRAME_END" URL="obj.__FRAME_END/0x0804a040"];
	"0x08048830" -> "0x080486f8" [label="sym.imp.__deregister_frame_info" color="green" URL="sym.imp.__deregister_frame_info/0x080486f8"];
	"0x080486f8" [label="sym.imp.__deregister_frame_info" URL="sym.imp.__deregister_frame_info/0x080486f8"];
	"0x08048890" -> "0x08048678" [label="sym.imp.__register_frame_info" color="red" URL="sym.imp.__register_frame_info/0x08048678"];
	"0x08048678" [label="sym.imp.__register_frame_info" URL="sym.imp.__register_frame_info/0x08048678"];
	"0x08048890" -> "0x0804a188" [label="obj.object.11" color="red" URL="obj.object.11/0x0804a188"];
	"0x0804a188" [label="obj.object.11" URL="obj.object.11/0x0804a188"];
	"0x08048890" -> "0x0804a040" [label="obj.__FRAME_END" color="red" URL="obj.__FRAME_END/0x0804a040"];
	"0x0804a040" [label="obj.__FRAME_END" URL="obj.__FRAME_END/0x0804a040"];
	"0x08048890" -> "0x08048678" [label="sym.imp.__register_frame_info" color="green" URL="sym.imp.__register_frame_info/0x08048678"];
	"0x08048678" [label="sym.imp.__register_frame_info" URL="sym.imp.__register_frame_info/0x08048678"];
	"0x08048678" -> "0x0804a064" [label="reloc.__register_frame_info_100" color="red" URL="reloc.__register_frame_info_100/0x0804a064"];
	"0x0804a064" [label="reloc.__register_frame_info_100" URL="reloc.__register_frame_info_100/0x0804a064"];
	"0x08048e40" -> "0x0804a044" [label="obj.__CTOR_LIST" color="red" URL="obj.__CTOR_LIST/0x0804a044"];
	"0x0804a044" [label="obj.__CTOR_LIST" URL="obj.__CTOR_LIST/0x0804a044"];
	"0x080489cc" -> "0x08048778" [label="sym.imp.gethostbyname" color="green" URL="sym.imp.gethostbyname/0x08048778"];
	"0x08048778" [label="sym.imp.gethostbyname" URL="sym.imp.gethostbyname/0x08048778"];
	"0x080489cc" -> "0x08048a21" [label="loc.08048a21" color="green" URL="loc.08048a21/0x08048a21"];
	"0x08048a21" [label="loc.08048a21" URL="loc.08048a21/0x08048a21"];
	"0x080489cc" -> "0x08048fb9" [label="str.Could_not_resolve__s." color="red" URL="str.Could_not_resolve__s./0x08048fb9"];
	"0x08048fb9" [label="str.Could_not_resolve__s." URL="str.Could_not_resolve__s./0x08048fb9"];
	"0x080489cc" -> "0x0804a184" [label="obj.stderr" color="red" URL="obj.stderr/0x0804a184"];
	"0x0804a184" [label="obj.stderr" URL="obj.stderr/0x0804a184"];
	"0x080489cc" -> "0x08048698" [label="sym.imp.fprintf" color="green" URL="sym.imp.fprintf/0x08048698"];
	"0x08048698" [label="sym.imp.fprintf" URL="sym.imp.fprintf/0x08048698"];
	"0x08048778" -> "0x0804a0a4" [label="reloc.gethostbyname_164" color="red" URL="reloc.gethostbyname_164/0x0804a0a4"];
	"0x0804a0a4" [label="reloc.gethostbyname_164" URL="reloc.gethostbyname_164/0x0804a0a4"];
	"0x08048698" -> "0x0804a06c" [label="reloc.fprintf_108" color="red" URL="reloc.fprintf_108/0x0804a06c"];
	"0x0804a06c" [label="reloc.fprintf_108" URL="reloc.fprintf_108/0x0804a06c"];
	"0x080488d0" -> "0x08048ec0" [label="str.Usage:__s__dstaddr___dstport___pktsize___pps" color="red" URL="str.Usage:__s__dstaddr___dstport___pktsize___pps/0x08048ec0"];
	"0x08048ec0" [label="str.Usage:__s__dstaddr___dstport___pktsize___pps" URL="str.Usage:__s__dstaddr___dstport___pktsize___pps/0x08048ec0"];
	"0x080488d0" -> "0x0804a184" [label="obj.stderr" color="red" URL="obj.stderr/0x0804a184"];
	"0x0804a184" [label="obj.stderr" URL="obj.stderr/0x0804a184"];
	"0x080488d0" -> "0x08048698" [label="sym.imp.fprintf" color="green" URL="sym.imp.fprintf/0x08048698"];
	"0x08048698" [label="sym.imp.fprintf" URL="sym.imp.fprintf/0x08048698"];
	"0x080488d0" -> "0x08048f00" [label="str.dstaddr____the_target_we_are_trying_to_attack." color="red" URL="str.dstaddr____the_target_we_are_trying_to_attack./0x08048f00"];
	"0x08048f00" [label="str.dstaddr____the_target_we_are_trying_to_attack." URL="str.dstaddr____the_target_we_are_trying_to_attack./0x08048f00"];
	"0x080488d0" -> "0x0804a184" [label="obj.stderr" color="red" URL="obj.stderr/0x0804a184"];
	"0x0804a184" [label="obj.stderr" URL="obj.stderr/0x0804a184"];
	"0x080488d0" -> "0x08048698" [label="sym.imp.fprintf" color="green" URL="sym.imp.fprintf/0x08048698"];
	"0x08048698" [label="sym.imp.fprintf" URL="sym.imp.fprintf/0x08048698"];
	"0x080488d0" -> "0x08048f40" [label="str.dstport____the_port_of_the_target__0___random." color="red" URL="str.dstport____the_port_of_the_target__0___random./0x08048f40"];
	"0x08048f40" [label="str.dstport____the_port_of_the_target__0___random." URL="str.dstport____the_port_of_the_target__0___random./0x08048f40"];
	"0x080488d0" -> "0x0804a184" [label="obj.stderr" color="red" URL="obj.stderr/0x0804a184"];
	"0x0804a184" [label="obj.stderr" URL="obj.stderr/0x0804a184"];
	"0x080488d0" -> "0x08048698" [label="sym.imp.fprintf" color="green" URL="sym.imp.fprintf/0x08048698"];
	"0x08048698" [label="sym.imp.fprintf" URL="sym.imp.fprintf/0x08048698"];
	"0x080488d0" -> "0x08048f80" [label="str.pktsize____the_extra_size_to_use.__0___normal___syn." color="red" URL="str.pktsize____the_extra_size_to_use.__0___normal___syn./0x08048f80"];
	"0x08048f80" [label="str.pktsize____the_extra_size_to_use.__0___normal___syn." URL="str.pktsize____the_extra_size_to_use.__0___normal___syn./0x08048f80"];
	"0x080488d0" -> "0x0804a184" [label="obj.stderr" color="red" URL="obj.stderr/0x0804a184"];
	"0x0804a184" [label="obj.stderr" URL="obj.stderr/0x0804a184"];
	"0x080488d0" -> "0x08048698" [label="sym.imp.fprintf" color="green" URL="sym.imp.fprintf/0x08048698"];
	"0x08048698" [label="sym.imp.fprintf" URL="sym.imp.fprintf/0x08048698"];
	"0x08048628" -> "0x08048890" [label="sym.frame_dummy" color="green" URL="sym.frame_dummy/0x08048890"];
	"0x08048890" [label="sym.frame_dummy" URL="sym.frame_dummy/0x08048890"];
	"0x08048628" -> "0x08048e40" [label="sym.__do_global_ctors_aux" color="green" URL="sym.__do_global_ctors_aux/0x08048e40"];
	"0x08048e40" [label="sym.__do_global_ctors_aux" URL="sym.__do_global_ctors_aux/0x08048e40"];
	"0x08048a28" -> "0x0804a1c0" [label="obj.packet" color="red" URL="obj.packet/0x0804a1c0"];
	"0x0804a1c0" [label="obj.packet" URL="obj.packet/0x0804a1c0"];
	"0x08048a28" -> "0x080487b8" [label="sym.imp.memset" color="green" URL="sym.imp.memset/0x080487b8"];
	"0x080487b8" [label="sym.imp.memset" URL="sym.imp.memset/0x080487b8"];
	"0x08048a28" -> "0x080487d8" [label="sym.imp.rand" color="green" URL="sym.imp.rand/0x080487d8"];
	"0x080487d8" [label="sym.imp.rand" URL="sym.imp.rand/0x080487d8"];
	"0x08048a28" -> "0x0804a234" [label="obj.dstaddr" color="red" URL="obj.dstaddr/0x0804a234"];
	"0x0804a234" [label="obj.dstaddr" URL="obj.dstaddr/0x0804a234"];
	"0x08048a28" -> "0x080487a8" [label="sym.imp.htons" color="green" URL="sym.imp.htons/0x080487a8"];
	"0x080487a8" [label="sym.imp.htons" URL="sym.imp.htons/0x080487a8"];
	"0x08048a28" -> "0x080486c8" [label="sym.imp.random" color="green" URL="sym.imp.random/0x080486c8"];
	"0x080486c8" [label="sym.imp.random" URL="sym.imp.random/0x080486c8"];
	"0x08048a28" -> "0x080487d8" [label="sym.imp.rand" color="green" URL="sym.imp.rand/0x080487d8"];
	"0x080487d8" [label="sym.imp.rand" URL="sym.imp.rand/0x080487d8"];
	"0x08048a28" -> "0x080487d8" [label="sym.imp.rand" color="green" URL="sym.imp.rand/0x080487d8"];
	"0x080487d8" [label="sym.imp.rand" URL="sym.imp.rand/0x080487d8"];
	"0x08048a28" -> "0x0804a234" [label="obj.dstaddr" color="red" URL="obj.dstaddr/0x0804a234"];
	"0x0804a234" [label="obj.dstaddr" URL="obj.dstaddr/0x0804a234"];
	"0x08048a28" -> "0x080487a8" [label="sym.imp.htons" color="green" URL="sym.imp.htons/0x080487a8"];
	"0x080487a8" [label="sym.imp.htons" URL="sym.imp.htons/0x080487a8"];
	"0x08048a28" -> "0x0804a224" [label="obj.s_in" color="red" URL="obj.s_in/0x0804a224"];
	"0x0804a224" [label="obj.s_in" URL="obj.s_in/0x0804a224"];
	"0x08048a28" -> "0x0804a234" [label="obj.dstaddr" color="red" URL="obj.dstaddr/0x0804a234"];
	"0x0804a234" [label="obj.dstaddr" URL="obj.dstaddr/0x0804a234"];
	"0x08048a28" -> "0x080486c8" [label="sym.imp.random" color="green" URL="sym.imp.random/0x080486c8"];
	"0x080486c8" [label="sym.imp.random" URL="sym.imp.random/0x080486c8"];
	"0x08048a28" -> "0x0804a200" [label="obj.cksum" color="red" URL="obj.cksum/0x0804a200"];
	"0x0804a200" [label="obj.cksum" URL="obj.cksum/0x0804a200"];
	"0x08048a28" -> "0x0804a1c0" [label="obj.packet" color="red" URL="obj.packet/0x0804a1c0"];
	"0x0804a1c0" [label="obj.packet" URL="obj.packet/0x0804a1c0"];
	"0x08048a28" -> "0x08048944" [label="sym.in_cksum" color="green" URL="sym.in_cksum/0x08048944"];
	"0x08048944" [label="sym.in_cksum" URL="sym.in_cksum/0x08048944"];
	"0x08048a28" -> "0x0804a200" [label="obj.cksum" color="red" URL="obj.cksum/0x0804a200"];
	"0x0804a200" [label="obj.cksum" URL="obj.cksum/0x0804a200"];
	"0x08048a28" -> "0x08048944" [label="sym.in_cksum" color="green" URL="sym.in_cksum/0x08048944"];
	"0x08048944" [label="sym.in_cksum" URL="sym.in_cksum/0x08048944"];
	"0x08048a28" -> "0x0804a224" [label="obj.s_in" color="red" URL="obj.s_in/0x0804a224"];
	"0x0804a224" [label="obj.s_in" URL="obj.s_in/0x0804a224"];
	"0x08048a28" -> "0x0804a1c0" [label="obj.packet" color="red" URL="obj.packet/0x0804a1c0"];
	"0x0804a1c0" [label="obj.packet" URL="obj.packet/0x0804a1c0"];
	"0x08048a28" -> "0x0804a1e8" [label="obj.sock" color="red" URL="obj.sock/0x0804a1e8"];
	"0x0804a1e8" [label="obj.sock" URL="obj.sock/0x0804a1e8"];
	"0x08048a28" -> "0x080486e8" [label="sym.imp.sendto" color="green" URL="sym.imp.sendto/0x080486e8"];
	"0x080486e8" [label="sym.imp.sendto" URL="sym.imp.sendto/0x080486e8"];
	"0x08048a28" -> "0x08048fd0" [label="str.jess" color="red" URL="str.jess/0x08048fd0"];
	"0x08048fd0" [label="str.jess" URL="str.jess/0x08048fd0"];
	"0x08048a28" -> "0x08048688" [label="sym.imp.perror" color="green" URL="sym.imp.perror/0x08048688"];
	"0x08048688" [label="sym.imp.perror" URL="sym.imp.perror/0x08048688"];
	"0x08048a28" -> "0x080487d8" [label="sym.imp.rand" color="green" URL="sym.imp.rand/0x080487d8"];
	"0x080487d8" [label="sym.imp.rand" URL="sym.imp.rand/0x080487d8"];
	"0x08048a28" -> "0x0804a1a0" [label="obj.dstport" color="red" URL="obj.dstport/0x0804a1a0"];
	"0x0804a1a0" [label="obj.dstport" URL="obj.dstport/0x0804a1a0"];
	"0x08048a28" -> "0x080487a8" [label="sym.imp.htons" color="green" URL="sym.imp.htons/0x080487a8"];
	"0x080487a8" [label="sym.imp.htons" URL="sym.imp.htons/0x080487a8"];
	"0x08048c7c" -> "0x08048fe0" [label="str.stream.c_v1.0___TCP_Packet_Storm" color="red" URL="str.stream.c_v1.0___TCP_Packet_Storm/0x08048fe0"];
	"0x08048fe0" [label="str.stream.c_v1.0___TCP_Packet_Storm" URL="str.stream.c_v1.0___TCP_Packet_Storm/0x08048fe0"];
	"0x08048c7c" -> "0x08048738" [label="sym.imp.printf" color="green" URL="sym.imp.printf/0x08048738"];
	"0x08048738" [label="sym.imp.printf" URL="sym.imp.printf/0x08048738"];
	"0x08048c7c" -> "0x080487c8" [label="sym.imp.socket" color="green" URL="sym.imp.socket/0x080487c8"];
	"0x080487c8" [label="sym.imp.socket" URL="sym.imp.socket/0x080487c8"];
	"0x08048c7c" -> "0x0804a1e8" [label="obj.sock" color="red" URL="obj.sock/0x0804a1e8"];
	"0x0804a1e8" [label="obj.sock" URL="obj.sock/0x0804a1e8"];
	"0x08048c7c" -> "0x08048758" [label="sym.imp.getgid" color="green" URL="sym.imp.getgid/0x08048758"];
	"0x08048758" [label="sym.imp.getgid" URL="sym.imp.getgid/0x08048758"];
	"0x08048c7c" -> "0x080486b8" [label="sym.imp.setgid" color="green" URL="sym.imp.setgid/0x080486b8"];
	"0x080486b8" [label="sym.imp.setgid" URL="sym.imp.setgid/0x080486b8"];
	"0x08048c7c" -> "0x08048748" [label="sym.imp.getuid" color="green" URL="sym.imp.getuid/0x08048748"];
	"0x08048748" [label="sym.imp.getuid" URL="sym.imp.getuid/0x08048748"];
	"0x08048c7c" -> "0x080487e8" [label="sym.imp.setuid" color="green" URL="sym.imp.setuid/0x080487e8"];
	"0x080487e8" [label="sym.imp.setuid" URL="sym.imp.setuid/0x080487e8"];
	"0x08048c7c" -> "0x0804a1e8" [label="obj.sock" color="red" URL="obj.sock/0x0804a1e8"];
	"0x0804a1e8" [label="obj.sock" URL="obj.sock/0x0804a1e8"];
	"0x08048c7c" -> "0x08048708" [label="sym.imp.setsockopt" color="green" URL="sym.imp.setsockopt/0x08048708"];
	"0x08048708" [label="sym.imp.setsockopt" URL="sym.imp.setsockopt/0x08048708"];
	"0x08048c7c" -> "0x08048718" [label="sym.imp.time" color="green" URL="sym.imp.time/0x08048718"];
	"0x08048718" [label="sym.imp.time" URL="sym.imp.time/0x08048718"];
	"0x08048c7c" -> "0x08048668" [label="sym.imp.getpid" color="green" URL="sym.imp.getpid/0x08048668"];
	"0x08048668" [label="sym.imp.getpid" URL="sym.imp.getpid/0x08048668"];
	"0x08048c7c" -> "0x080486d8" [label="sym.imp.getppid" color="green" URL="sym.imp.getppid/0x080486d8"];
	"0x080486d8" [label="sym.imp.getppid" URL="sym.imp.getppid/0x080486d8"];
	"0x08048c7c" -> "0x08048768" [label="sym.imp.srand" color="green" URL="sym.imp.srand/0x08048768"];
	"0x08048768" [label="sym.imp.srand" URL="sym.imp.srand/0x08048768"];
	"0x08048c7c" -> "0x08049014" [label="str.Resolving_IPs..." color="red" URL="str.Resolving_IPs.../0x08049014"];
	"0x08049014" [label="str.Resolving_IPs..." URL="str.Resolving_IPs.../0x08049014"];
	"0x08048c7c" -> "0x08048738" [label="sym.imp.printf" color="green" URL="sym.imp.printf/0x08048738"];
	"0x08048738" [label="sym.imp.printf" URL="sym.imp.printf/0x08048738"];
	"0x08048c7c" -> "0x0804a180" [label="obj.stdout" color="red" URL="obj.stdout/0x0804a180"];
	"0x0804a180" [label="obj.stdout" URL="obj.stdout/0x0804a180"];
	"0x08048c7c" -> "0x080486a8" [label="sym.imp.fflush" color="green" URL="sym.imp.fflush/0x080486a8"];
	"0x080486a8" [label="sym.imp.fflush" URL="sym.imp.fflush/0x080486a8"];
	"0x08048c7c" -> "0x080489cc" [label="sym.lookup" color="green" URL="sym.lookup/0x080489cc"];
	"0x080489cc" [label="sym.lookup" URL="sym.lookup/0x080489cc"];
	"0x08048c7c" -> "0x0804a234" [label="obj.dstaddr" color="red" URL="obj.dstaddr/0x0804a234"];
	"0x0804a234" [label="obj.dstaddr" URL="obj.dstaddr/0x0804a234"];
	"0x08048c7c" -> "0x08048798" [label="sym.imp.atoi" color="green" URL="sym.imp.atoi/0x08048798"];
	"0x08048798" [label="sym.imp.atoi" URL="sym.imp.atoi/0x08048798"];
	"0x08048c7c" -> "0x0804a1a0" [label="obj.dstport" color="red" URL="obj.dstport/0x0804a1a0"];
	"0x0804a1a0" [label="obj.dstport" URL="obj.dstport/0x0804a1a0"];
	"0x08048c7c" -> "0x08048798" [label="sym.imp.atoi" color="green" URL="sym.imp.atoi/0x08048798"];
	"0x08048798" [label="sym.imp.atoi" URL="sym.imp.atoi/0x08048798"];
	"0x08048c7c" -> "0x0804a222" [label="obj.pktsize" color="red" URL="obj.pktsize/0x0804a222"];
	"0x0804a222" [label="obj.pktsize" URL="obj.pktsize/0x0804a222"];
	"0x08048c7c" -> "0x08049026" [label="str.Sending..." color="red" URL="str.Sending.../0x08049026"];
	"0x08049026" [label="str.Sending..." URL="str.Sending.../0x08049026"];
	"0x08048c7c" -> "0x08048738" [label="sym.imp.printf" color="green" URL="sym.imp.printf/0x08048738"];
	"0x08048738" [label="sym.imp.printf" URL="sym.imp.printf/0x08048738"];
	"0x08048c7c" -> "0x0804a180" [label="obj.stdout" color="red" URL="obj.stdout/0x0804a180"];
	"0x0804a180" [label="obj.stdout" URL="obj.stdout/0x0804a180"];
	"0x08048c7c" -> "0x080486a8" [label="sym.imp.fflush" color="green" URL="sym.imp.fflush/0x080486a8"];
	"0x080486a8" [label="sym.imp.fflush" URL="sym.imp.fflush/0x080486a8"];
	"0x08048c7c" -> "0x08048a28" [label="sym.flooder" color="green" URL="sym.flooder/0x08048a28"];
	"0x08048a28" [label="sym.flooder" URL="sym.flooder/0x08048a28"];
	"0x08048c7c" -> "0x08049009" [label="str.setsockopt" color="red" URL="str.setsockopt/0x08049009"];
	"0x08049009" [label="str.setsockopt" URL="str.setsockopt/0x08049009"];
	"0x08048c7c" -> "0x08048688" [label="sym.imp.perror" color="green" URL="sym.imp.perror/0x08048688"];
	"0x08048688" [label="sym.imp.perror" URL="sym.imp.perror/0x08048688"];
	"0x08048c7c" -> "0x080488d0" [label="sym.usage" color="green" URL="sym.usage/0x080488d0"];
	"0x080488d0" [label="sym.usage" URL="sym.usage/0x080488d0"];
	"0x08048c7c" -> "0x08049002" [label="str.socket" color="red" URL="str.socket/0x08049002"];
	"0x08049002" [label="str.socket" URL="str.socket/0x08049002"];
	"0x08048c7c" -> "0x08048688" [label="sym.imp.perror" color="green" URL="sym.imp.perror/0x08048688"];
	"0x08048688" [label="sym.imp.perror" URL="sym.imp.perror/0x08048688"];
	"0x08048738" -> "0x0804a094" [label="reloc.printf_148" color="red" URL="reloc.printf_148/0x0804a094"];
	"0x0804a094" [label="reloc.printf_148" URL="reloc.printf_148/0x0804a094"];
	"0x080487c8" -> "0x0804a0b8" [label="reloc.socket_184" color="red" URL="reloc.socket_184/0x0804a0b8"];
	"0x0804a0b8" [label="reloc.socket_184" URL="reloc.socket_184/0x0804a0b8"];
	"0x08048758" -> "0x0804a09c" [label="reloc.getgid_156" color="red" URL="reloc.getgid_156/0x0804a09c"];
	"0x0804a09c" [label="reloc.getgid_156" URL="reloc.getgid_156/0x0804a09c"];
	"0x080486b8" -> "0x0804a074" [label="reloc.setgid_116" color="red" URL="reloc.setgid_116/0x0804a074"];
	"0x0804a074" [label="reloc.setgid_116" URL="reloc.setgid_116/0x0804a074"];
	"0x08048748" -> "0x0804a098" [label="reloc.getuid_152" color="red" URL="reloc.getuid_152/0x0804a098"];
	"0x0804a098" [label="reloc.getuid_152" URL="reloc.getuid_152/0x0804a098"];
	"0x080487e8" -> "0x0804a0c0" [label="reloc.setuid_192" color="red" URL="reloc.setuid_192/0x0804a0c0"];
	"0x0804a0c0" [label="reloc.setuid_192" URL="reloc.setuid_192/0x0804a0c0"];
	"0x08048708" -> "0x0804a088" [label="reloc.setsockopt_136" color="red" URL="reloc.setsockopt_136/0x0804a088"];
	"0x0804a088" [label="reloc.setsockopt_136" URL="reloc.setsockopt_136/0x0804a088"];
	"0x08048718" -> "0x0804a08c" [label="reloc.time_140" color="red" URL="reloc.time_140/0x0804a08c"];
	"0x0804a08c" [label="reloc.time_140" URL="reloc.time_140/0x0804a08c"];
	"0x08048668" -> "0x0804a060" [label="reloc.getpid_96" color="red" URL="reloc.getpid_96/0x0804a060"];
	"0x0804a060" [label="reloc.getpid_96" URL="reloc.getpid_96/0x0804a060"];
	"0x080486d8" -> "0x0804a07c" [label="reloc.getppid_124" color="red" URL="reloc.getppid_124/0x0804a07c"];
	"0x0804a07c" [label="reloc.getppid_124" URL="reloc.getppid_124/0x0804a07c"];
	"0x08048768" -> "0x0804a0a0" [label="reloc.srand_160" color="red" URL="reloc.srand_160/0x0804a0a0"];
	"0x0804a0a0" [label="reloc.srand_160" URL="reloc.srand_160/0x0804a0a0"];
	"0x080486a8" -> "0x0804a070" [label="reloc.fflush_112" color="red" URL="reloc.fflush_112/0x0804a070"];
	"0x0804a070" [label="reloc.fflush_112" URL="reloc.fflush_112/0x0804a070"];
	"0x08048798" -> "0x0804a0ac" [label="reloc.atoi_172" color="red" URL="reloc.atoi_172/0x0804a0ac"];
	"0x0804a0ac" [label="reloc.atoi_172" URL="reloc.atoi_172/0x0804a0ac"];
	"0x08048688" -> "0x0804a068" [label="reloc.perror_104" color="red" URL="reloc.perror_104/0x0804a068"];
	"0x0804a068" [label="reloc.perror_104" URL="reloc.perror_104/0x0804a068"];
	"0x08048e74" -> "0x08048830" [label="sym.__do_global_dtors_aux" color="green" URL="sym.__do_global_dtors_aux/0x08048830"];
	"0x08048830" [label="sym.__do_global_dtors_aux" URL="sym.__do_global_dtors_aux/0x08048830"];
	"0x080486c8" -> "0x0804a078" [label="reloc.random_120" color="red" URL="reloc.random_120/0x0804a078"];
	"0x0804a078" [label="reloc.random_120" URL="reloc.random_120/0x0804a078"];
	"0x080486f8" -> "0x0804a084" [label="reloc.__deregister_frame_info_132" color="red" URL="reloc.__deregister_frame_info_132/0x0804a084"];
	"0x0804a084" [label="reloc.__deregister_frame_info_132" URL="reloc.__deregister_frame_info_132/0x0804a084"];
	"0x080487d8" -> "0x0804a0bc" [label="reloc.rand_188" color="red" URL="reloc.rand_188/0x0804a0bc"];
	"0x0804a0bc" [label="reloc.rand_188" URL="reloc.rand_188/0x0804a0bc"];
	"0x080486e8" -> "0x0804a080" [label="reloc.sendto_128" color="red" URL="reloc.sendto_128/0x0804a080"];
	"0x0804a080" [label="reloc.sendto_128" URL="reloc.sendto_128/0x0804a080"];
	"0x080487b8" -> "0x0804a0b4" [label="reloc.memset_180" color="red" URL="reloc.memset_180/0x0804a0b4"];
	"0x0804a0b4" [label="reloc.memset_180" URL="reloc.memset_180/0x0804a0b4"];
	"0x080487a8" -> "0x0804a0b0" [label="reloc.htons_176" color="red" URL="reloc.htons_176/0x0804a0b0"];
	"0x0804a0b0" [label="reloc.htons_176" URL="reloc.htons_176/0x0804a0b0"];
	"0x08048788" -> "0x0804a0a8" [label="reloc.exit_168" color="red" URL="reloc.exit_168/0x0804a0a8"];
	"0x0804a0a8" [label="reloc.exit_168" URL="reloc.exit_168/0x0804a0a8"];
	"0x08048728" -> "0x0804a090" [label="reloc.__libc_start_main_144" color="red" URL="reloc.__libc_start_main_144/0x0804a090"];
	"0x0804a090" [label="reloc.__libc_start_main_144" URL="reloc.__libc_start_main_144/0x0804a090"];
}
